taiyo - rtsp://onvif:onvif@192.168.2.80:554/live/04E21294-B5DB-4485-BDDC-4983BF711699
Annex Front - rtsp://onvif:onvif@192.168.2.80:554/live/9732952A-B27D-4CB9-BD64-73A97BC48A7F
Annex Rear - rtsp://onvif:onvif@192.168.2.80:554/live/E530770B-3024-430A-B108-E98B6716F657

Entry 1 - rtsp://onvif:onvif@192.168.2.80:554/live/7E7B549D-657C-4C7D-A948-EF1879836BBB
Entry 2 - rtsp://onvif:onvif@192.168.2.80:554/live/F5DB1208-EA06-473E-9E85-AD5AF23277BA
Exit 1 - rtsp://onvif:onvif@192.168.2.80:554/live/3CA5016B-8A83-4B97-BA5C-2B80A40FE07B
Exit 2 - rtsp://onvif:onvif@192.168.2.80:554/live/301A7AFA-AF5A-42AE-8BF8-8432B8E83626