203.115.228.233 (Staging Server)
U:Administrator
P:Thursday)#17

Server
Administrator
P!ssw0rd

Allgo
Administrator@my.ntt.com
P!ssw0rd

Allgo server
IP : 10.115.12.79, 192.168.2.79
Gateway : 10.115.12.254

Milestone Server
IP: 10.115.12.80, 192.168.2.80
Gateway : 10.115.12.254
